Ticker,Name,Weight,Sector
AAPL,APPLE INC,6.71%,Information Technology
MSFT,MICROSOFT CORP,5.22%,Information Technology
AMZN,AMAZON COM INC,4.33%,Consumer Discretionary
FB,FACEBOOK CLASS A  INC,2.01%,Communication
TSLA,TESLA INC,1.97%,Consumer Discretionary
GOOGL,ALPHABET INC CLASS A,1.74%,Communication
GOOG,ALPHABET INC CLASS C,1.69%,Communication
BRKB,BERKSHIRE HATHAWAY INC CLASS B,1.40%,Financials
JNJ,JOHNSON & JOHNSON,1.31%,Health Care
JPM,JPMORGAN CHASE & CO,1.26%,Financials
V,VISA INC CLASS A,1.07%,Information Technology
NVDA,NVIDIA CORP,1.05%,Information Technology
UNH,UNITEDHEALTH GROUP INC,1.03%,Health Care
PG,PROCTER & GAMBLE,1.00%,Consumer Staples
DIS,WALT DISNEY,0.95%,Communication
HD,HOME DEPOT INC,0.92%,Consumer Discretionary
MA,MASTERCARD INC CLASS A,0.90%,Information Technology
PYPL,PAYPAL HOLDINGS INC,0.89%,Information Technology
NFLX,NETFLIX INC,0.79%,Communication
INTC,INTEL CORPORATION CORP,0.79%,Information Technology
BAC,BANK OF AMERICA CORP,0.74%,Financials
VZ,VERIZON COMMUNICATIONS INC,0.73%,Communication
ADBE,ADOBE INC,0.70%,Information Technology
CMCSA,COMCAST CORP CLASS A,0.69%,Communication
T,AT&T INC,0.63%,Communication
MRK,MERCK & CO INC,0.63%,Health Care
XOM,EXXON MOBIL CORP,0.62%,Energy
CRM,SALESFORCE.COM INC,0.62%,Information Technology
TMO,THERMO FISHER SCIENTIFIC INC,0.62%,Health Care
PFE,PFIZER INC,0.62%,Health Care
WMT,WALMART INC,0.62%,Consumer Staples
ABT,ABBOTT LABORATORIES,0.61%,Health Care
ABBV,ABBVIE INC,0.60%,Health Care
PEP,PEPSICO INC,0.59%,Consumer Staples
CSCO,CISCO SYSTEMS INC,0.59%,Information Technology
KO,COCA-COLA,0.58%,Consumer Staples
AVGO,BROADCOM INC,0.58%,Information Technology
QCOM,QUALCOMM INC,0.57%,Information Technology
NKE,NIKE INC CLASS B,0.55%,Consumer Discretionary
CVX,CHEVRON CORP,0.54%,Energy
NEE,NEXTERA ENERGY INC,0.50%,Utilities
ACN,ACCENTURE PLC CLASS A,0.50%,Information Technology
TXN,TEXAS INSTRUMENT INC,0.49%,Information Technology
LLY,ELI LILLY,0.49%,Health Care
COST,COSTCO WHOLESALE CORP,0.49%,Consumer Staples
MCD,MCDONALDS CORP,0.49%,Consumer Discretionary
MDT,MEDTRONIC PLC,0.49%,Health Care
DHR,DANAHER CORP,0.45%,Health Care
AMGN,AMGEN INC,0.45%,Health Care
BMY,BRISTOL MYERS SQUIBB,0.45%,Health Care
HON,HONEYWELL INTERNATIONAL INC,0.44%,Industrials
UNP,UNION PACIFIC CORP,0.43%,Industrials
LIN,LINDE PLC,0.41%,Materials
WFC,WELLS FARGO,0.41%,Financials
C,CITIGROUP INC,0.40%,Financials
PM,PHILIP MORRIS INTERNATIONAL INC,0.39%,Consumer Staples
LOW,LOWES COMPANIES INC,0.39%,Consumer Discretionary
SBUX,STARBUCKS CORP,0.38%,Consumer Discretionary
IBM,INTERNATIONAL BUSINESS MACHINES CO,0.36%,Information Technology
ORCL,ORACLE CORP,0.36%,Information Technology
UPS,UNITED PARCEL SERVICE INC CLASS B,0.35%,Industrials
AMD,ADVANCED MICRO DEVICES INC,0.34%,Information Technology
BA,BOEING,0.34%,Industrials
MS,MORGAN STANLEY,0.33%,Financials
NOW,SERVICENOW INC,0.33%,Information Technology
BLK,BLACKROCK INC,0.32%,Financials
CAT,CATERPILLAR INC,0.32%,Industrials
RTX,RAYTHEON TECHNOLOGIES CORP,0.32%,Industrials
INTU,INTUIT INC,0.31%,Information Technology
GS,GOLDMAN SACHS GROUP INC,0.31%,Financials
AMT,AMERICAN TOWER REIT CORP,0.30%,Real Estate
AMAT,APPLIED MATERIAL INC,0.30%,Information Technology
MMM,3M,0.30%,Industrials
GE,GENERAL ELECTRIC,0.30%,Industrials
CVS,CVS HEALTH CORP,0.30%,Health Care
DE,DEERE,0.29%,Industrials
TGT,TARGET CORP,0.29%,Consumer Discretionary
CHTR,CHARTER COMMUNICATIONS INC CLASS A,0.29%,Communication
MU,MICRON TECHNOLOGY INC,0.29%,Information Technology
ISRG,INTUITIVE SURGICAL INC,0.29%,Health Care
SCHW,CHARLES SCHWAB CORP,0.27%,Financials
BKNG,BOOKING HOLDINGS INC,0.27%,Consumer Discretionary
GILD,GILEAD SCIENCES INC,0.26%,Health Care
LMT,LOCKHEED MARTIN CORP,0.26%,Industrials
AXP,AMERICAN EXPRESS,0.26%,Financials
FIS,FIDELITY NATIONAL INFORMATION SERV,0.25%,Information Technology
TJX,TJX INC,0.25%,Consumer Discretionary
CI,CIGNA CORP,0.25%,Health Care
LRCX,LAM RESEARCH CORP,0.25%,Information Technology
MDLZ,MONDELEZ INTERNATIONAL INC CLASS A,0.25%,Consumer Staples
ANTM,ANTHEM INC,0.25%,Health Care
SYK,STRYKER CORP,0.24%,Health Care
ZTS,ZOETIS INC CLASS A,0.24%,Health Care
MO,ALTRIA GROUP INC,0.24%,Consumer Staples
SPGI,S&P GLOBAL INC,0.23%,Financials
TMUS,T MOBILE US INC,0.23%,Communication
BDX,BECTON DICKINSON,0.23%,Health Care
PLD,PROLOGIS REIT INC,0.23%,Real Estate
ATVI,ACTIVISION BLIZZARD INC,0.22%,Communication
CB,CHUBB LTD,0.22%,Financials
CSX,CSX CORP,0.22%,Industrials
GM,GENERAL MOTORS,0.21%,Consumer Discretionary
ADP,AUTOMATIC DATA PROCESSING INC,0.21%,Information Technology
TFC,TRUIST FINANCIAL CORP,0.21%,Financials
CCI,CROWN CASTLE INTERNATIONAL REIT CO,0.21%,Real Estate
CL,COLGATE-PALMOLIVE,0.21%,Consumer Staples
ADSK,AUTODESK INC,0.21%,Information Technology
CME,CME GROUP INC CLASS A,0.21%,Financials
DUK,DUKE ENERGY CORP,0.20%,Utilities
PNC,PNC FINANCIAL SERVICES GROUP INC,0.20%,Financials
EQIX,EQUINIX REIT INC,0.20%,Real Estate
ICE,INTERCONTINENTAL EXCHANGE INC,0.19%,Financials
SO,SOUTHERN,0.19%,Utilities
USB,US BANCORP,0.19%,Financials
FISV,FISERV INC,0.19%,Information Technology
APD,AIR PRODUCTS AND CHEMICALS INC,0.19%,Materials
NSC,NORFOLK SOUTHERN CORP,0.19%,Industrials
VRTX,VERTEX PHARMACEUTICALS INC,0.19%,Health Care
FDX,FEDEX CORP,0.19%,Industrials
SHW,SHERWIN WILLIAMS,0.18%,Materials
DD,DUPONT DE NEMOURS INC,0.18%,Materials
ILMN,ILLUMINA INC,0.18%,Health Care
ADI,ANALOG DEVICES INC,0.18%,Information Technology
ITW,ILLINOIS TOOL INC,0.18%,Industrials
D,DOMINION ENERGY INC,0.18%,Utilities
COP,CONOCOPHILLIPS,0.18%,Energy
EL,ESTEE LAUDER INC CLASS A,0.18%,Consumer Staples
MMC,MARSH & MCLENNAN INC,0.17%,Financials
GPN,GLOBAL PAYMENTS INC,0.17%,Information Technology
REGN,REGENERON PHARMACEUTICALS INC,0.17%,Health Care
PGR,PROGRESSIVE CORP,0.17%,Financials
HUM,HUMANA INC,0.17%,Health Care
EW,EDWARDS LIFESCIENCES CORP,0.17%,Health Care
XTSLA,BLK CSH FND TREASURY SL AGENCY,0.17%,Cash and/or Derivatives
BSX,BOSTON SCIENTIFIC CORP,0.16%,Health Care
ECL,ECOLAB INC,0.16%,Materials
DG,DOLLAR GENERAL CORP,0.16%,Consumer Discretionary
EMR,EMERSON ELECTRIC,0.15%,Industrials
NEM,NEWMONT,0.15%,Materials
ETN,EATON PLC,0.15%,Industrials
COF,CAPITAL ONE FINANCIAL CORP,0.15%,Financials
AON,AON PLC CLASS A,0.15%,Financials
KLAC,KLA CORP,0.14%,Information Technology
NOC,NORTHROP GRUMMAN CORP,0.14%,Industrials
F,FORD MOTOR CO,0.14%,Consumer Discretionary
KMB,KIMBERLY CLARK CORP,0.14%,Consumer Staples
WM,WASTE MANAGEMENT INC,0.14%,Industrials
ROP,ROPER TECHNOLOGIES INC,0.14%,Industrials
HCA,HCA HEALTHCARE INC,0.14%,Health Care
MCO,MOODYS CORP,0.13%,Financials
FCX,FREEPORT MCMORAN INC,0.13%,Materials
CTSH,COGNIZANT TECHNOLOGY SOLUTIONS COR,0.13%,Information Technology
TEL,TE CONNECTIVITY LTD,0.13%,Information Technology
DOW,DOW INC,0.13%,Materials
IDXX,IDEXX LABORATORIES INC,0.13%,Health Care
EA,ELECTRONIC ARTS INC,0.13%,Communication
CMG,CHIPOTLE MEXICAN GRILL INC,0.13%,Consumer Discretionary
EXC,EXELON CORP,0.13%,Utilities
BIIB,BIOGEN INC,0.13%,Health Care
SNPS,SYNOPSYS INC,0.13%,Information Technology
ROST,ROSS STORES INC,0.13%,Consumer Discretionary
BAX,BAXTER INTERNATIONAL INC,0.13%,Health Care
AEP,AMERICAN ELECTRIC POWER INC,0.12%,Utilities
APH,AMPHENOL CORP CLASS A,0.12%,Information Technology
MCHP,MICROCHIP TECHNOLOGY INC,0.12%,Information Technology
DLR,DIGITAL REALTY TRUST REIT INC,0.12%,Real Estate
SYY,SYSCO CORP,0.12%,Consumer Staples
ALGN,ALIGN TECHNOLOGY INC,0.12%,Health Care
MET,METLIFE INC,0.12%,Financials
A,AGILENT TECHNOLOGIES INC,0.12%,Health Care
APTV,APTIV PLC,0.12%,Consumer Discretionary
STZ,CONSTELLATION BRANDS INC CLASS A,0.12%,Consumer Staples
CDNS,CADENCE DESIGN SYSTEMS INC,0.12%,Information Technology
LHX,L3HARRIS TECHNOLOGIES INC,0.12%,Industrials
JCI,JOHNSON CONTROLS INTERNATIONAL PLC,0.12%,Industrials
TRV,TRAVELERS COMPANIES INC,0.12%,Financials
TWTR,TWITTER INC,0.12%,Communication
TT,TRANE TECHNOLOGIES PLC,0.11%,Industrials
EBAY,EBAY INC,0.11%,Consumer Discretionary
CMI,CUMMINS INC,0.11%,Industrials
CNC,CENTENE CORP,0.11%,Health Care
IQV,IQVIA HOLDINGS INC,0.11%,Health Care
PH,PARKER-HANNIFIN CORP,0.11%,Industrials
TROW,T ROWE PRICE GROUP INC,0.11%,Financials
SRE,SEMPRA ENERGY,0.11%,Utilities
DXCM,DEXCOM INC,0.11%,Health Care
AIG,AMERICAN INTERNATIONAL GROUP INC,0.11%,Financials
GD,GENERAL DYNAMICS CORP,0.11%,Industrials
HPQ,HP INC,0.11%,Information Technology
ALXN,ALEXION PHARMACEUTICALS INC,0.11%,Health Care
XLNX,XILINX INC,0.11%,Information Technology
BK,BANK OF NEW YORK MELLON CORP,0.11%,Financials
MSCI,MSCI INC,0.11%,Financials
PCAR,PACCAR INC,0.11%,Industrials
XEL,XCEL ENERGY INC,0.11%,Utilities
ORLY,OREILLY AUTOMOTIVE INC,0.10%,Consumer Discretionary
WBA,WALGREEN BOOTS ALLIANCE INC,0.10%,Consumer Staples
PPG,PPG INDUSTRIES INC,0.10%,Materials
PSA,PUBLIC STORAGE REIT,0.10%,Real Estate
GIS,GENERAL MILLS INC,0.10%,Consumer Staples
ALL,ALLSTATE CORP,0.10%,Financials
ZBH,ZIMMER BIOMET HOLDINGS INC,0.10%,Health Care
MAR,MARRIOTT INTERNATIONAL INC CLASS A,0.10%,Consumer Discretionary
SLB,SCHLUMBERGER NV,0.10%,Energy
MNST,MONSTER BEVERAGE CORP,0.10%,Consumer Staples
INFO,IHS MARKIT LTD,0.10%,Industrials
PRU,PRUDENTIAL FINANCIAL INC,0.10%,Financials
YUM,YUM BRANDS INC,0.10%,Consumer Discretionary
CARR,CARRIER GLOBAL CORP,0.10%,Industrials
EOG,EOG RESOURCES INC,0.10%,Energy
ANSS,ANSYS INC,0.10%,Information Technology
PSX,PHILLIPS,0.10%,Energy
VRSK,VERISK ANALYTICS INC,0.10%,Industrials
RMD,RESMED INC,0.10%,Health Care
TDG,TRANSDIGM GROUP INC,0.10%,Industrials
CTVA,CORTEVA INC,0.10%,Materials
ROK,ROCKWELL AUTOMATION INC,0.10%,Industrials
SPG,SIMON PROPERTY GROUP REIT INC,0.10%,Real Estate
SBAC,SBA COMMUNICATIONS REIT CORP CLASS,0.09%,Real Estate
AFL,AFLAC INC,0.09%,Financials
HLT,HILTON WORLDWIDE HOLDINGS INC,0.09%,Consumer Discretionary
ES,EVERSOURCE ENERGY,0.09%,Utilities
BLL,BALL CORP,0.09%,Materials
MTD,METTLER TOLEDO INC,0.09%,Health Care
KMI,KINDER MORGAN INC,0.09%,Energy
MPC,MARATHON PETROLEUM CORP,0.09%,Energy
PEG,PUBLIC SERVICE ENTERPRISE GROUP IN,0.09%,Utilities
MCK,MCKESSON CORP,0.09%,Health Care
ADM,ARCHER DANIELS MIDLAND,0.09%,Consumer Staples
MSI,MOTOROLA SOLUTIONS INC,0.09%,Information Technology
AWK,AMERICAN WATER WORKS INC,0.09%,Utilities
CTAS,CINTAS CORP,0.09%,Industrials
GLW,CORNING INC,0.09%,Information Technology
AZO,AUTOZONE INC,0.09%,Consumer Discretionary
DFS,DISCOVER FINANCIAL SERVICES,0.09%,Financials
SWK,STANLEY BLACK & DECKER INC,0.09%,Industrials
LUV,SOUTHWEST AIRLINES,0.09%,Industrials
PAYX,PAYCHEX INC,0.09%,Information Technology
FAST,FASTENAL,0.09%,Industrials
WEC,WEC ENERGY GROUP INC,0.09%,Utilities
AME,AMETEK INC,0.08%,Industrials
KEYS,KEYSIGHT TECHNOLOGIES INC,0.08%,Information Technology
SWKS,SKYWORKS SOLUTIONS INC,0.08%,Information Technology
VFC,VF CORP,0.08%,Consumer Discretionary
ETSY,ETSY INC,0.08%,Consumer Discretionary
WLTW,WILLIS TOWERS WATSON PLC,0.08%,Financials
ENPH,ENPHASE ENERGY INC,0.08%,Information Technology
FRC,FIRST REPUBLIC BANK,0.08%,Financials
BBY,BEST BUY INC,0.08%,Consumer Discretionary
STT,STATE STREET CORP,0.08%,Financials
WMB,WILLIAMS INC,0.08%,Energy
PXD,PIONEER NATURAL RESOURCE,0.08%,Energy
DAL,DELTA AIR LINES INC,0.08%,Industrials
OTIS,OTIS WORLDWIDE CORP,0.08%,Industrials
WELL,WELLTOWER INC,0.08%,Real Estate
KR,KROGER,0.08%,Consumer Staples
MXIM,MAXIM INTEGRATED PRODUCTS INC,0.08%,Information Technology
VIAC,VIACOMCBS INC CLASS B,0.08%,Communication
DHI,D R HORTON INC,0.08%,Consumer Discretionary
DLTR,DOLLAR TREE INC,0.08%,Consumer Discretionary
AMP,AMERIPRISE FINANCE INC,0.08%,Financials
CLX,CLOROX,0.08%,Consumer Staples
WY,WEYERHAEUSER REIT,0.08%,Real Estate
CERN,CERNER CORP,0.07%,Health Care
VLO,VALERO ENERGY CORP,0.07%,Energy
CPRT,COPART INC,0.07%,Industrials
ED,CONSOLIDATED EDISON INC,0.07%,Utilities
LYB,LYONDELLBASELL INDUSTRIES NV CLASS,0.07%,Materials
DTE,DTE ENERGY,0.07%,Utilities
FTV,FORTIVE CORP,0.07%,Industrials
TER,TERADYNE INC,0.07%,Information Technology
TTWO,TAKE TWO INTERACTIVE SOFTWARE INC,0.07%,Communication
SIVB,SVB FINANCIAL GROUP,0.07%,Financials
AVB,AVALONBAY COMMUNITIES REIT INC,0.07%,Real Estate
LEN,LENNAR A CORP,0.07%,Consumer Discretionary
AJG,ARTHUR J GALLAGHER,0.07%,Financials
MKC,MCCORMICK & CO NON-VOTING INC,0.07%,Consumer Staples
FLT,FLEETCOR TECHNOLOGIES INC,0.07%,Information Technology
EIX,EDISON INTERNATIONAL,0.07%,Utilities
LH,LABORATORY CORPORATION OF AMERICA,0.07%,Health Care
WST,WEST PHARMACEUTICAL SERVICES INC,0.07%,Health Care
HSY,HERSHEY FOODS,0.07%,Consumer Staples
FITB,FIFTH THIRD BANCORP,0.07%,Financials
EFX,EQUIFAX INC,0.07%,Industrials
CBRE,CBRE GROUP INC CLASS A,0.07%,Real Estate
ZBRA,ZEBRA TECHNOLOGIES CORP CLASS A,0.07%,Information Technology
PPL,PPL CORP,0.07%,Utilities
ARE,ALEXANDRIA REAL ESTATE EQUITIES RE,0.07%,Real Estate
KHC,KRAFT HEINZ,0.07%,Consumer Staples
CHD,CHURCH AND DWIGHT INC,0.07%,Consumer Staples
EQR,EQUITY RESIDENTIAL REIT,0.06%,Real Estate
VMC,VULCAN MATERIALS,0.06%,Materials
QRVO,QORVO INC,0.06%,Information Technology
VTRS,VIATRIS INC,0.06%,Health Care
O,REALTY INCOME REIT CORP,0.06%,Real Estate
SYF,SYNCHRONY FINANCIAL,0.06%,Financials
IP,INTERNATIONAL PAPER,0.06%,Materials
FTNT,FORTINET INC,0.06%,Information Technology
ODFL,OLD DOMINION FREIGHT LINE INC,0.06%,Industrials
KSU,KANSAS CITY SOUTHERN,0.06%,Industrials
PAYC,PAYCOM SOFTWARE INC,0.06%,Information Technology
VRSN,VERISIGN INC,0.06%,Information Technology
RSG,REPUBLIC SERVICES INC,0.06%,Industrials
HOLX,HOLOGIC INC,0.06%,Health Care
CDW,CDW CORP,0.06%,Information Technology
KMX,CARMAX INC,0.06%,Consumer Discretionary
CTLT,CATALENT  INC,0.06%,Health Care
NTRS,NORTHERN TRUST CORP,0.06%,Financials
MKTX,MARKETAXESS HOLDINGS INC,0.06%,Financials
TSN,TYSON FOODS INC CLASS A,0.06%,Consumer Staples
MLM,MARTIN MARIETTA MATERIALS INC,0.06%,Materials
OKE,ONEOK INC,0.06%,Energy
EXPE,EXPEDIA GROUP INC,0.06%,Consumer Discretionary
ALB,ALBEMARLE CORP,0.06%,Materials
ETR,ENTERGY CORP,0.06%,Utilities
XYL,XYLEM INC,0.06%,Industrials
GRMN,GARMIN LTD,0.06%,Consumer Discretionary
HIG,HARTFORD FINANCIAL SERVICES GROUP,0.06%,Financials
URI,UNITED RENTALS INC,0.06%,Industrials
COO,COOPER INC,0.06%,Health Care
MTB,M&T BANK CORP,0.06%,Financials
LVS,LAS VEGAS SANDS CORP,0.06%,Consumer Discretionary
AES,AES CORP,0.06%,Utilities
TSCO,TRACTOR SUPPLY,0.06%,Consumer Discretionary
DOV,DOVER CORP,0.06%,Industrials
TFX,TELEFLEX INC,0.06%,Health Care
VTR,VENTAS REIT INC,0.06%,Real Estate
OXY,OCCIDENTAL PETROLEUM CORP,0.06%,Energy
AKAM,AKAMAI TECHNOLOGIES INC,0.05%,Information Technology
KEY,KEYCORP,0.05%,Financials
AEE,AMEREN CORP,0.05%,Utilities
GWW,WW GRAINGER INC,0.05%,Industrials
TRMB,TRIMBLE INC,0.05%,Information Technology
AMCR,AMCOR PLC,0.05%,Materials
HAL,HALLIBURTON,0.05%,Energy
INCY,INCYTE CORP,0.05%,Health Care
BR,BROADRIDGE FINANCIAL SOLUTIONS INC,0.05%,Information Technology
TYL,TYLER TECHNOLOGIES INC,0.05%,Information Technology
RF,REGIONS FINANCIAL CORP,0.05%,Financials
ANET,ARISTA NETWORKS INC,0.05%,Information Technology
IR,INGERSOLL RAND INC,0.05%,Industrials
DGX,QUEST DIAGNOSTICS INC,0.05%,Health Care
ULTA,ULTA BEAUTY INC,0.05%,Consumer Discretionary
WAT,WATER CORP,0.05%,Health Care
FE,FIRSTENERGY CORP,0.05%,Utilities
PKI,PERKINELMER INC,0.05%,Health Care
CFG,CITIZENS FINANCIAL GROUP INC,0.05%,Financials
WDC,WESTERN DIGITAL CORP,0.05%,Information Technology
HES,HESS CORP,0.05%,Energy
CMS,CMS ENERGY CORP,0.05%,Utilities
CAG,CONAGRA BRANDS INC,0.05%,Consumer Staples
NUE,NUCOR CORP,0.05%,Materials
DRI,DARDEN RESTAURANTS INC,0.05%,Consumer Discretionary
CAH,CARDINAL HEALTH INC,0.05%,Health Care
STE,STERIS,0.05%,Health Care
NDAQ,NASDAQ INC,0.05%,Financials
ESS,ESSEX PROPERTY TRUST REIT INC,0.05%,Real Estate
VAR,VARIAN MEDICAL SYSTEMS INC,0.05%,Health Care
PEAK,HEALTHPEAK PROPERTIES INC,0.05%,Real Estate
EXPD,EXPEDITORS INTERNATIONAL OF WASHIN,0.05%,Industrials
HPE,HEWLETT PACKARD ENTERPRISE,0.05%,Information Technology
CTXS,CITRIX SYSTEMS INC,0.05%,Information Technology
ABMD,ABIOMED INC,0.05%,Health Care
NVR,NVR INC,0.05%,Consumer Discretionary
CE,CELANESE CORP,0.05%,Materials
CCL,CARNIVAL CORP,0.05%,Consumer Discretionary
BKR,BAKER HUGHES CLASS A,0.05%,Energy
ABC,AMERISOURCEBERGEN CORP,0.05%,Health Care
MAA,MID AMERICA APARTMENT COMMUNITIES,0.05%,Real Estate
MAS,MASCO CORP,0.05%,Industrials
DPZ,DOMINOS PIZZA INC,0.05%,Consumer Discretionary
FMC,FMC CORP,0.05%,Materials
DRE,DUKE REALTY REIT CORP,0.05%,Real Estate
HBAN,HUNTINGTON BANCSHARES INC,0.05%,Financials
K,KELLOGG,0.05%,Consumer Staples
IEX,IDEX CORP,0.05%,Industrials
LDOS,LEIDOS HOLDINGS INC,0.04%,Information Technology
GPC,GENUINE PARTS,0.04%,Consumer Discretionary
POOL,POOL CORP,0.04%,Consumer Discretionary
EXR,EXTRA SPACE STORAGE REIT INC,0.04%,Real Estate
NTAP,NETAPP INC,0.04%,Information Technology
WAB,WESTINGHOUSE AIR BRAKE TECHNOLOGIE,0.04%,Industrials
IT,GARTNER INC,0.04%,Information Technology
TDY,TELEDYNE TECHNOLOGIES INC,0.04%,Industrials
J,JACOBS ENGINEERING GROUP INC,0.04%,Industrials
EMN,EASTMAN CHEMICAL,0.04%,Materials
STX,SEAGATE TECHNOLOGY PLC,0.04%,Information Technology
RCL,ROYAL CARIBBEAN GROUP LTD,0.04%,Consumer Discretionary
OMC,OMNICOM GROUP INC,0.04%,Communication
PFG,PRINCIPAL FINANCIAL GROUP INC,0.04%,Financials
AVY,AVERY DENNISON CORP,0.04%,Materials
BFB,BROWN FORMAN CORP CLASS B,0.04%,Consumer Staples
CINF,CINCINNATI FINANCIAL CORP,0.04%,Financials
PKG,PACKAGING CORP OF AMERICA,0.04%,Materials
CHRW,CH ROBINSON WORLDWIDE INC,0.04%,Industrials
BIO,BIO RAD LABORATORIES INC CLASS A,0.04%,Health Care
BXP,BOSTON PROPERTIES REIT INC,0.04%,Real Estate
XRAY,DENTSPLY SIRONA INC,0.04%,Health Care
SJM,JM SMUCKER,0.04%,Consumer Staples
FBHS,FORTUNE BRANDS HOME AND SECURITY I,0.04%,Industrials
MGM,MGM RESORTS INTERNATIONAL,0.04%,Consumer Discretionary
UAL,UNITED AIRLINES HOLDINGS INC,0.04%,Industrials
HAS,HASBRO INC,0.04%,Consumer Discretionary
HRL,HORMEL FOODS CORP,0.04%,Consumer Staples
PHM,PULTEGROUP INC,0.04%,Consumer Discretionary
RJF,RAYMOND JAMES INC,0.04%,Financials
LNT,ALLIANT ENERGY CORP,0.04%,Utilities
WRK,WESTROCK,0.04%,Materials
FFIV,F5 NETWORKS INC,0.04%,Information Technology
IFF,INTERNATIONAL FLAVORS & FRAGRANCES,0.04%,Materials
EVRG,EVERGY INC,0.04%,Utilities
CNP,CENTERPOINT ENERGY INC,0.04%,Utilities
NLOK,NORTONLIFELOCK INC,0.04%,Information Technology
JBHT,JB HUNT TRANSPORT SERVICES INC,0.04%,Industrials
WHR,WHIRLPOOL CORP,0.04%,Consumer Discretionary
JKHY,JACK HENRY AND ASSOCIATES INC,0.04%,Information Technology
ATO,ATMOS ENERGY CORP,0.04%,Utilities
UDR,UDR REIT INC,0.03%,Real Estate
TXT,TEXTRON INC,0.03%,Industrials
AAP,ADVANCE AUTO PARTS INC,0.03%,Consumer Discretionary
LW,LAMB WESTON HOLDINGS INC,0.03%,Consumer Staples
LUMN,LUMEN TECHNOLOGIES INC,0.03%,Communication
DVN,DEVON ENERGY CORP,0.03%,Energy
L,LOEWS CORP,0.03%,Financials
ALLE,ALLEGION PLC,0.03%,Industrials
PWR,QUANTA SERVICES INC,0.03%,Industrials
LB,L BRANDS INC,0.03%,Consumer Discretionary
BWA,BORGWARNER INC,0.03%,Consumer Discretionary
FOXA,FOX CORP CLASS A,0.03%,Communication
LYV,LIVE NATION ENTERTAINMENT INC,0.03%,Communication
HWM,HOWMET AEROSPACE INC,0.03%,Industrials
CBOE,CBOE GLOBAL MARKETS INC,0.03%,Financials
WYNN,WYNN RESORTS LTD,0.03%,Consumer Discretionary
LKQ,LKQ CORP,0.03%,Consumer Discretionary
HST,HOST HOTELS & RESORTS REIT INC,0.03%,Real Estate
NRG,NRG ENERGY INC,0.03%,Utilities
UHS,UNIVERSAL HEALTH SERVICES INC CLAS,0.03%,Health Care
MOS,MOSAIC,0.03%,Materials
IPG,INTERPUBLIC GROUP OF COMPANIES INC,0.03%,Communication
HSIC,HENRY SCHEIN INC,0.03%,Health Care
AAL,AMERICAN AIRLINES GROUP INC,0.03%,Industrials
DISCK,DISCOVERY INC SERIES C,0.03%,Communication
NWL,NEWELL BRANDS INC,0.03%,Consumer Discretionary
TAP,MOLSON COORS BREWING  CLASS B,0.03%,Consumer Staples
CF,CF INDUSTRIES HOLDINGS INC,0.03%,Materials
SNA,SNAP ON INC,0.03%,Industrials
USD,USD CASH,0.03%,Cash and/or Derivatives
FANG,DIAMONDBACK ENERGY INC,0.03%,Energy
LNC,LINCOLN NATIONAL CORP,0.03%,Financials
MHK,MOHAWK INDUSTRIES INC,0.03%,Consumer Discretionary
PNR,PENTAIR,0.03%,Industrials
CPB,CAMPBELL SOUP,0.03%,Consumer Staples
WRB,WR BERKLEY CORP,0.03%,Financials
GL,GLOBE LIFE INC,0.03%,Financials
TPR,TAPESTRY INC,0.03%,Consumer Discretionary
RE,EVEREST RE GROUP LTD,0.03%,Financials
IRM,IRON MOUNTAIN INC,0.03%,Real Estate
IPGP,IPG PHOTONICS CORP,0.03%,Information Technology
WU,WESTERN UNION,0.03%,Information Technology
DVA,DAVITA INC,0.03%,Health Care
NI,NISOURCE INC,0.03%,Utilities
PNW,PINNACLE WEST CORP,0.03%,Utilities
CMA,COMERICA INC,0.03%,Financials
AIZ,ASSURANT INC,0.03%,Financials
JNPR,JUNIPER NETWORKS INC,0.03%,Information Technology
IVZ,INVESCO LTD,0.03%,Financials
ROL,ROLLINS INC,0.02%,Industrials
AOS,A O SMITH CORP,0.02%,Industrials
NCLH,NORWEGIAN CRUISE LINE HOLDINGS LTD,0.02%,Consumer Discretionary
DISH,DISH NETWORK CORP CLASS A,0.02%,Communication
RHI,ROBERT HALF,0.02%,Industrials
NLSN,NIELSEN HOLDINGS PLC,0.02%,Industrials
ZION,ZIONS BANCORPORATION,0.02%,Financials
NWSA,NEWS CORP CLASS A,0.02%,Communication
KIM,KIMCO REALTY REIT CORP,0.02%,Real Estate
BEN,FRANKLIN RESOURCES INC,0.02%,Financials
SEE,SEALED AIR CORP,0.02%,Materials
REG,REGENCY CENTERS REIT CORP,0.02%,Real Estate
DXC,DXC TECHNOLOGY,0.02%,Information Technology
COG,CABOT OIL & GAS CORP,0.02%,Energy
ALK,ALASKA AIR GROUP INC,0.02%,Industrials
FLIR,FLIR SYSTEMS INC,0.02%,Information Technology
PVH,PVH CORP,0.02%,Consumer Discretionary
HII,HUNTINGTON INGALLS INDUSTRIES INC,0.02%,Industrials
MRO,MARATHON OIL CORP,0.02%,Energy
FRT,FEDERAL REALTY INVESTMENT TRUST RE,0.02%,Real Estate
DISCA,DISCOVERY INC SERIES A,0.02%,Communication
APA,APACHE CORP,0.02%,Energy
PBCT,PEOPLES UNITED FINANCIAL INC,0.02%,Financials
LEG,LEGGETT & PLATT INC,0.02%,Consumer Discretionary
VNT,VONTIER CORP,0.02%,Information Technology
PRGO,PERRIGO PLC,0.02%,Health Care
HBI,HANESBRANDS INC,0.02%,Consumer Discretionary
VNO,VORNADO REALTY TRUST REIT,0.02%,Real Estate
NOV,NOV INC,0.02%,Energy
UNM,UNUM,0.02%,Financials
RL,RALPH LAUREN CORP CLASS A,0.02%,Consumer Discretionary
FTI,TECHNIPFMC PLC,0.02%,Energy
FLS,FLOWSERVE CORP,0.01%,Industrials
SLG,SL GREEN REALTY REIT CORP,0.01%,Real Estate
GPS,GAP INC,0.01%,Consumer Discretionary
HFC,HOLLYFRONTIER CORP,0.01%,Energy
FOX,FOX CORP CLASS B,0.01%,Communication
UBFUT,CASH COLLATERAL USD UBFUT,0.01%,Cash and/or Derivatives
XRX,XEROX HOLDINGS CORP,0.01%,Information Technology
UAA,UNDER ARMOUR INC CLASS A,0.01%,Consumer Discretionary
UA,UNDER ARMOUR INC CLASS C,0.01%,Consumer Discretionary
NWS,NEWS CORP CLASS B,0.01%,Communication
ESH1,S&P500 EMINI MAR 21,0.00%,Cash and/or Derivatives
