<?xml version="1.0" encoding="utf-8"?>
<svg id="master-artboard" viewBox="0 0 408.19244384765625 552.1614379882812" version="1.1" xmlns="http://www.w3.org/2000/svg" x="0px" y="0px" style="enable-background:new 0 0 1400 980;" width="408.19244384765625px" height="552.1614379882812px"><defs><style id="ee-google-fonts">@import url(https://fonts.googleapis.com/css?family=Anton:400|Roboto+Slab:100,300,400,700);</style><path id="text-path-0" d="M 778.8464965820312 213.4612274169922 A 100 18 0 0 1 988.3533935546875 213.4612274169922 A 100 18 0 0 1 778.8464965820312 213.4612274169922 Z" style="fill: none; stroke: red; stroke-width: 2;"/><path id="text-path-1" d="M 664.5464477539062 37.96122741699219 A 100 19 0 0 1 876.5812377929688 37.96122741699219 A 100 19 0 0 1 664.5464477539062 37.96122741699219" style="fill: none; stroke: red; stroke-width: 2;"/><path id="text-path-2" d="M 765.3650512695312 211.70851135253906 A 100 17 0 0 1 991.5017700195312 211.70851135253906 A 100 17 0 0 1 765.3650512695312 211.70851135253906" style="fill: none; stroke: red; stroke-width: 2;"/><path id="path-1" d="M 765.3650512695312 211.70851135253906 A 100 17 0 0 1 991.5017700195312 211.70851135253906 A 100 17 0 0 1 765.3650512695312 211.70851135253906" style="fill: none; stroke: red; stroke-width: 2;"/><linearGradient id="gradient-0" gradientUnits="userSpaceOnUse" x1="652" y1="46" x2="652" y2="146">
                <stop offset="0" style="stop-color: #ffc491"/>
                <stop offset="1" style="stop-color: #ff8e2b"/>
              </linearGradient><linearGradient id="gradient-1" gradientUnits="userSpaceOnUse" x1="596.3619079589844" y1="463.6821594238281" x2="596.3619079589844" y2="819.452392578125" gradientTransform="matrix(-0.6051444044847671, -0.796115560689492, 1.304079397789968, -0.9912590992894222, 119.20323137287066, 1759.2451307734657)">
                <stop offset="0" style="stop-color: #ffc491"/>
                <stop offset="1" style="stop-color: #ff8e2b"/>
              </linearGradient><radialGradient id="gradient-2" gradientUnits="objectBoundingBox" cx="0.5" cy="0.5" r="0.5" gradientTransform="matrix(0.42286860942840576, -0.5745984017848969, 0.2329418659210205, 0.8541846722364426, 0.17209476232528687, 0.36020710319280624)">
                <stop offset="0" style="stop-color: #333333"/>
                <stop offset="1" style="stop-color: #000000"/>
              </radialGradient></defs><rect id="ee-background" x="0" y="0" width="408.19244384765625" height="552.1614379882812" style="fill: white; fill-opacity: 0; pointer-events: none;"/>


<path d="M 574.1426391601562 658.8331909179688" style="fill: rgb(0, 0, 0); fill-opacity: 1; stroke: rgb(64, 40, 30); stroke-opacity: 1; stroke-width: 10; paint-order: stroke;" transform="matrix(1, 0, 0, 1, -433.3948974609375, -177.80303955078125)"/><g transform="matrix(2.748558759689331, -0.025881454348564148, 0.011594563722610474, 1.2313306331634521, -1557.582763671875, 372.8895263671875)"><g id="g-1" transform="matrix(0.8022652864456177, 0, 0, 0.8022652864456178, 130.57083382364, 27.000830814625374)">
	<g id="g-2">
		<path class="st0" d="M652,46c27.6,0,50,22.4,50,50s-22.4,50-50,50s-50-22.4-50-50S624.4,46,652,46z" style="fill: rgb(26, 20, 14); stroke-opacity: 0.1; stroke: rgb(0, 0, 0); stroke-width: 0; fill-opacity: 0.18; paint-order: fill;"/>
	</g>
</g></g><path d="M 363.0015563964844 644.9422607421875 C 365.7791842924625 806.0522459301757 829.7344970703125 942.2064208984375 829.7344970703125 639.3858642578125 C 829.7344970703125 336.5653076171875 360.2235107421875 483.80804443359375 363.0015563964844 644.9422607421875 Z" style="fill-opacity: 1; stroke: rgb(255, 196, 145); stroke-opacity: 1; stroke-width: 0; paint-order: fill; fill: url('#gradient-1');" transform="matrix(1.9348625812654063e-8, 1.000004529953003, -1.000004529953003, 1.9348625812654063e-8, 845.5562744140625, -341.573974609375)"/></svg>